<svg width="24" height="15" viewBox="0 0 24 15" fill="none" xmlns="http://www.w3.org/2000/svg">
    <path d="M14.8929 13.4703H8.62891V2.21283H14.8929V13.4703Z" fill="#FF5F00"/>
    <path d="M9.03028 7.84052C9.03028 5.5569 10.0995 3.52271 11.7645 2.2118C10.5469 1.2532 9.01025 0.681046 7.34021 0.681046C3.38654 0.681046 0.181641 3.8864 0.181641 7.84052C0.181641 11.7946 3.38654 15 7.34021 15C9.01025 15 10.5469 14.4278 11.7645 13.4692C10.0995 12.1583 9.03028 10.1241 9.03028 7.84052Z"
          fill="#EB001B"/>
    <path d="M23.3412 7.84052C23.3412 11.7946 20.1363 15 16.1826 15C14.5125 15 12.9759 14.4278 11.7578 13.4692C13.4233 12.1583 14.4925 10.1241 14.4925 7.84052C14.4925 5.5569 13.4233 3.52271 11.7578 2.2118C12.9759 1.2532 14.5125 0.681046 16.1826 0.681046C20.1363 0.681046 23.3412 3.8864 23.3412 7.84052Z"
          fill="#F79E1B"/>
</svg>
