<svg width="18" height="16" viewBox="0 0 18 16" fill="none" xmlns="http://www.w3.org/2000/svg">
<path d="M17.0002 3.6001H12.2002" stroke="white" stroke-width="1.2" stroke-miterlimit="10" stroke-linecap="round" stroke-linejoin="round"/>
<path d="M4.2 3.6001H1" stroke="white" stroke-width="1.2" stroke-miterlimit="10" stroke-linecap="round" stroke-linejoin="round"/>
<path d="M7.39961 6.40005C8.94601 6.40005 10.1996 5.14645 10.1996 3.60005C10.1996 2.05365 8.94601 0.800049 7.39961 0.800049C5.85321 0.800049 4.59961 2.05365 4.59961 3.60005C4.59961 5.14645 5.85321 6.40005 7.39961 6.40005Z" stroke="white" stroke-width="1.2" stroke-miterlimit="10" stroke-linecap="round" stroke-linejoin="round"/>
<path d="M16.9998 12.4H13.7998" stroke="white" stroke-width="1.2" stroke-miterlimit="10" stroke-linecap="round" stroke-linejoin="round"/>
<path d="M5.8 12.4H1" stroke="white" stroke-width="1.2" stroke-miterlimit="10" stroke-linecap="round" stroke-linejoin="round"/>
<path d="M10.5998 15.2001C12.1462 15.2001 13.3998 13.9465 13.3998 12.4001C13.3998 10.8537 12.1462 9.6001 10.5998 9.6001C9.05341 9.6001 7.7998 10.8537 7.7998 12.4001C7.7998 13.9465 9.05341 15.2001 10.5998 15.2001Z" stroke="white" stroke-width="1.2" stroke-miterlimit="10" stroke-linecap="round" stroke-linejoin="round"/>
</svg>
