<svg width="28" height="22" viewBox="0 0 28 22" fill="none" xmlns="http://www.w3.org/2000/svg">
<rect x="3.03906" y="19.7991" width="28" height="3" rx="1.5" transform="rotate(-45 3.03906 19.7991)" fill="#D00025"/>
<rect x="5.12109" width="28" height="3" rx="1.5" transform="rotate(45 5.12109 0)" fill="#D00025"/>
</svg>
