<svg width="7" height="13" viewBox="0 0 7 13" fill="none" xmlns="http://www.w3.org/2000/svg">
<path d="M4.54364 13V7.07007H6.60744L6.91646 4.75907H4.54364V3.28364C4.54364 2.61456 4.73628 2.1586 5.73113 2.1586L7 2.15806V0.0910851C6.78055 0.0629217 6.02734 0 5.15103 0C3.32158 0 2.0691 1.07698 2.0691 3.05477V4.75907H0V7.07007H2.0691V13H4.54364Z" fill="#1A181F"/>
</svg>
